<?xml version="1.0" standalone="no"?>
<!DOCTYPE svg PUBLIC "-//W3C//DTD SVG 1.1//EN" "http://www.w3.org/Graphics/SVG/1.1/DTD/svg11.dtd" >
<svg xmlns="http://www.w3.org/2000/svg">
<metadata>Generated by IcoMoon</metadata>
<defs>
<font id="GardenOfEden" horiz-adv-x="1024">
<font-face units-per-em="1024" ascent="960" descent="-64" />
<missing-glyph horiz-adv-x="1024" />
<glyph unicode="&#x20;" horiz-adv-x="512" d="" />
<glyph unicode="&#xe900;" glyph-name="check, success" d="M1019.040 807.253c2.534-4.23 4.292-9.213 4.942-14.538l0.018-0.182c-0.668-5.507-2.426-10.49-5.056-14.893l0.096 0.173-612.96-787.68c-5.47-7.064-13.051-12.258-21.79-14.652l-0.29-0.068c-9.888 0.667-18.582 5.286-24.601 12.274l-0.039 0.046-354.4 342.080c-2.534 4.23-4.292 9.213-4.942 14.538l-0.018 0.182c1.103 4.662 2.81 8.773 5.069 12.514l-0.109-0.194 4.96 4.96q68.96 73.92 108.32 113.28c5.073 6.499 11.716 11.548 19.368 14.61l0.312 0.11c10.050-1.817 18.619-7.143 24.577-14.637l0.063-0.083 196.96-192 492.16 632.48c3.509 3.113 8.155 5.014 13.245 5.014 0.519 0 1.033-0.020 1.543-0.059l-0.068 0.004c6.392-0.336 12.297-2.134 17.478-5.063l-0.198 0.103z" />
<glyph unicode="&#xe901;" glyph-name="question" d="M477.599 166.26c32.707-0.326 62.287-13.447 84.028-34.588l-0.028 0.028c18.603-19.068 30.079-45.164 30.079-73.94 0-3.542-0.174-7.044-0.514-10.497l0.035 0.437c-0.341-61.597-50.354-111.399-111.998-111.399-3.154 0-6.278 0.13-9.366 0.386l0.405-0.027c-31.617 0.63-60.186 13.184-81.498 33.334l0.058-0.054c-18.603 18.519-30.116 44.147-30.116 72.464 0 3.612 0.187 7.18 0.553 10.695l-0.037-0.44c0.401 32.925 14.037 62.589 35.822 83.982l0.018 0.018c19.123 18.526 45.227 29.945 73.997 29.945 3.014 0 5.998-0.125 8.949-0.371l-0.386 0.026zM731.839 889.78q96-74.080 96-204.96c0.002-0.379 0.003-0.827 0.003-1.275 0-52.726-17.492-101.366-46.99-140.434l0.427 0.59c-30.057-32.046-62.313-61.208-96.823-87.569l-1.897-1.391-51.84-34.56c-22.655-17.172-39.83-40.492-49.139-67.477l-0.301-1.003c-4.825-18.276-7.595-39.257-7.595-60.886 0-3.796 0.085-7.573 0.254-11.328l-0.019 0.533c0.021-0.292 0.033-0.632 0.033-0.976 0-7.865-6.375-14.24-14.24-14.24-1.089 0-2.15 0.122-3.169 0.354l0.095-0.018h-153.12q-17.28 0-17.28 12.32 4.96 113.6 36.96 163.040c15.32 20.484 32.367 38.343 51.316 53.98l0.524 0.42c18.377 16.15 38.527 31.571 59.688 45.59l2.072 1.29 27.2 17.92c14.060 10.732 26.228 22.9 36.62 36.496l0.34 0.464c18.528 23.253 29.729 53.059 29.729 85.482 0 31.038-10.264 59.678-27.584 82.712l0.255-0.354c-23.047 27.351-57.321 44.608-95.626 44.608-1.989 0-3.966-0.047-5.932-0.139l0.278 0.010c-42.504-0.021-79.469-23.715-98.427-58.611l-0.293-0.589q-17.28-27.2-17.28-106.24h-189.92q0 194.4 108 265.92 72.16 50.24 185.76 49.44 150.24 0 241.92-69.12z" />
<glyph unicode="&#xe902;" glyph-name="times, ex, close" d="M982.88 139.36c24.881-24.873 40.27-59.239 40.27-97.2s-15.39-72.327-40.27-97.2l32 32c-24.873-24.881-59.239-40.27-97.2-40.27s-72.327 15.39-97.2 40.27l-308.48 308.8-308.64-308.64c-24.873-24.881-59.239-40.27-97.2-40.27s-72.327 15.39-97.2 40.27l32-32c-24.881 24.873-40.27 59.239-40.27 97.2s15.39 72.327 40.27 97.2l308.8 308.48-308.64 308.64c-24.881 24.873-40.27 59.239-40.27 97.2s15.39 72.327 40.27 97.2l-32-32c24.873 24.881 59.239 40.27 97.2 40.27s72.327-15.39 97.2-40.27l308.48-308.8 308.64 308.64c24.873 24.881 59.239 40.27 97.2 40.27s72.327-15.39 97.2-40.27l-32 32c24.881-24.873 40.27-59.239 40.27-97.2s-15.39-72.327-40.27-97.2l-308.8-308.48z" />
</font></defs></svg>